…
The following data further explore the most wasted food in US. Besides from juice, we observe that Canned mushrooms, Tomatoes and Spinach are also among the highest wasted food in the US.

FoodLossandWasteAllClean %>%
  select(year,country,commodity, mean_loss_percentage)%>%
  filter(country == 'United States of America') %>%
  group_by(commodity) %>%
  summarise(sum_loss_per_year = sum(mean_loss_percentage))%>%
  arrange(desc(sum_loss_per_year))

## # A tibble: 85 × 2
##    commodity        sum_loss_per_year
##    <chr>                        <dbl>
##  1 Pineapple juice              2012.
##  2 Canned mushrooms             1705 
##  3 Orange juice                 1480.
##  4 Grapefruit juice             1460.
##  5 Apple juice                  1307.
##  6 Green garlic                  935.
##  7 Grape juice                   933.
##  8 Tomatoes                      756.
##  9 Spinach                       618.
## 10 Okra                          592.
## # … with 75 more rows
…
